<?xml version="1.0" encoding="UTF-8"?>
<svg xmlns="http://www.w3.org/2000/svg" viewBox="0 0 24 24" width="24px" height="24px">
<g id="surface26828298">
<path style=" stroke:none;fill-rule:evenodd;fill:rgb(92.941177%,30.980393%,19.607843%);fill-opacity:1;" d="M 2 11 L 2 13 L 22 13 L 22 11 Z M 2 11 "/>
</g>
</svg>
