<?xml version="1.0" encoding="UTF-8"?>
<svg xmlns="http://www.w3.org/2000/svg" viewBox="0 0 24 24" width="24px" height="24px">
<g id="surface26125913">
<path style=" stroke:none;fill-rule:nonzero;fill:rgb(80.000001%,80.000001%,80.000001%);fill-opacity:1;" d="M 20 4 L 4 4 C 2.894531 4 2 4.894531 2 6 L 2 18 C 2 19.105469 2.894531 20 4 20 L 20 20 C 21.105469 20 22 19.105469 22 18 L 22 6 C 22 4.894531 21.105469 4 20 4 Z M 10 8 C 10.550781 8 11 8.449219 11 9 C 11 9.550781 10.550781 10 10 10 C 9.449219 10 9 9.550781 9 9 C 9 8.449219 9.449219 8 10 8 Z M 19 17 L 5 17 L 8.5 12.5 L 11 15.511719 L 14.5 11 Z M 19 17 "/>
</g>
</svg>
